<svg width="30" height="23" viewBox="0 0 30 23" fill="none" xmlns="http://www.w3.org/2000/svg">
<rect width="30" height="3" fill="white"/>
<rect y="20" width="30" height="3" fill="white"/>
<rect y="10" width="30" height="3" fill="white"/>
</svg>
